dump.vcd
$date
	Wed Feb  4 11:15:20 2026
$end
$version
	Icarus Verilog
$end
$timescale
	100ps
$end
$scope module sm_testbench $end
$scope module sm_top $end
$scope module sm_cpu $end
$scope module rf $end
$var reg 32 ! \rf[0] [31:0] $end
$upscope $end
$upscope $end
$upscope $end
$upscope $end
$scope module sm_testbench $end
$scope module sm_top $end
$scope module sm_cpu $end
$scope module rf $end
$var reg 32 " \rf[1] [31:0] $end
$upscope $end
$upscope $end
$upscope $end
$upscope $end
$scope module sm_testbench $end
$scope module sm_top $end
$scope module sm_cpu $end
$scope module rf $end
$var reg 32 # \rf[2] [31:0] $end
$upscope $end
$upscope $end
$upscope $end
$upscope $end
$scope module sm_testbench $end
$scope module sm_top $end
$scope module sm_cpu $end
$scope module rf $end
$var reg 32 $ \rf[3] [31:0] $end
$upscope $end
$upscope $end
$upscope $end
$upscope $end
$scope module sm_testbench $end
$scope module sm_top $end
$scope module sm_cpu $end
$scope module rf $end
$var reg 32 % \rf[4] [31:0] $end
$upscope $end
$upscope $end
$upscope $end
$upscope $end
$scope module sm_testbench $end
$scope module sm_top $end
$scope module sm_cpu $end
$scope module rf $end
$var reg 32 & \rf[5] [31:0] $end
$upscope $end
$upscope $end
$upscope $end
$upscope $end
$scope module sm_testbench $end
$scope module sm_top $end
$scope module sm_cpu $end
$scope module rf $end
$var reg 32 ' \rf[6] [31:0] $end
$upscope $end
$upscope $end
$upscope $end
$upscope $end
$scope module sm_testbench $end
$scope module sm_top $end
$scope module sm_cpu $end
$scope module rf $end
$var reg 32 ( \rf[7] [31:0] $end
$upscope $end
$upscope $end
$upscope $end
$upscope $end
$scope module sm_testbench $end
$scope module sm_top $end
$scope module sm_cpu $end
$scope module rf $end
$var reg 32 ) \rf[8] [31:0] $end
$upscope $end
$upscope $end
$upscope $end
$upscope $end
$scope module sm_testbench $end
$scope module sm_top $end
$scope module sm_cpu $end
$scope module rf $end
$var reg 32 * \rf[9] [31:0] $end
$upscope $end
$upscope $end
$upscope $end
$upscope $end
$scope module sm_testbench $end
$scope module sm_top $end
$scope module sm_cpu $end
$scope module rf $end
$var reg 32 + \rf[10] [31:0] $end
$upscope $end
$upscope $end
$upscope $end
$upscope $end
$scope module sm_testbench $end
$scope module sm_top $end
$scope module sm_cpu $end
$scope module rf $end
$var reg 32 , \rf[11] [31:0] $end
$upscope $end
$upscope $end
$upscope $end
$upscope $end
$scope module sm_testbench $end
$scope module sm_top $end
$scope module sm_cpu $end
$scope module rf $end
$var reg 32 - \rf[12] [31:0] $end
$upscope $end
$upscope $end
$upscope $end
$upscope $end
$scope module sm_testbench $end
$scope module sm_top $end
$scope module sm_cpu $end
$scope module rf $end
$var reg 32 . \rf[13] [31:0] $end
$upscope $end
$upscope $end
$upscope $end
$upscope $end
$scope module sm_testbench $end
$scope module sm_top $end
$scope module sm_cpu $end
$scope module rf $end
$var reg 32 / \rf[14] [31:0] $end
$upscope $end
$upscope $end
$upscope $end
$upscope $end
$scope module sm_testbench $end
$scope module sm_top $end
$scope module sm_cpu $end
$scope module rf $end
$var reg 32 0 \rf[15] [31:0] $end
$upscope $end
$upscope $end
$upscope $end
$upscope $end
$scope module sm_testbench $end
$scope module sm_top $end
$scope module sm_cpu $end
$scope module rf $end
$var reg 32 1 \rf[16] [31:0] $end
$upscope $end
$upscope $end
$upscope $end
$upscope $end
$scope module sm_testbench $end
$scope module sm_top $end
$scope module sm_cpu $end
$scope module rf $end
$var reg 32 2 \rf[17] [31:0] $end
$upscope $end
$upscope $end
$upscope $end
$upscope $end
$scope module sm_testbench $end
$scope module sm_top $end
$scope module sm_cpu $end
$scope module rf $end
$var reg 32 3 \rf[18] [31:0] $end
$upscope $end
$upscope $end
$upscope $end
$upscope $end
$scope module sm_testbench $end
$scope module sm_top $end
$scope module sm_cpu $end
$scope module rf $end
$var reg 32 4 \rf[19] [31:0] $end
$upscope $end
$upscope $end
$upscope $end
$upscope $end
$scope module sm_testbench $end
$scope module sm_top $end
$scope module sm_cpu $end
$scope module rf $end
$var reg 32 5 \rf[20] [31:0] $end
$upscope $end
$upscope $end
$upscope $end
$upscope $end
$scope module sm_testbench $end
$scope module sm_top $end
$scope module sm_cpu $end
$scope module rf $end
$var reg 32 6 \rf[21] [31:0] $end
$upscope $end
$upscope $end
$upscope $end
$upscope $end
$scope module sm_testbench $end
$scope module sm_top $end
$scope module sm_cpu $end
$scope module rf $end
$var reg 32 7 \rf[22] [31:0] $end
$upscope $end
$upscope $end
$upscope $end
$upscope $end
$scope module sm_testbench $end
$scope module sm_top $end
$scope module sm_cpu $end
$scope module rf $end
$var reg 32 8 \rf[23] [31:0] $end
$upscope $end
$upscope $end
$upscope $end
$upscope $end
$scope module sm_testbench $end
$scope module sm_top $end
$scope module sm_cpu $end
$scope module rf $end
$var reg 32 9 \rf[24] [31:0] $end
$upscope $end
$upscope $end
$upscope $end
$upscope $end
$scope module sm_testbench $end
$scope module sm_top $end
$scope module sm_cpu $end
$scope module rf $end
$var reg 32 : \rf[25] [31:0] $end
$upscope $end
$upscope $end
$upscope $end
$upscope $end
$scope module sm_testbench $end
$scope module sm_top $end
$scope module sm_cpu $end
$scope module rf $end
$var reg 32 ; \rf[26] [31:0] $end
$upscope $end
$upscope $end
$upscope $end
$upscope $end
$scope module sm_testbench $end
$scope module sm_top $end
$scope module sm_cpu $end
$scope module rf $end
$var reg 32 < \rf[27] [31:0] $end
$upscope $end
$upscope $end
$upscope $end
$upscope $end
$scope module sm_testbench $end
$scope module sm_top $end
$scope module sm_cpu $end
$scope module rf $end
$var reg 32 = \rf[28] [31:0] $end
$upscope $end
$upscope $end
$upscope $end
$upscope $end
$scope module sm_testbench $end
$scope module sm_top $end
$scope module sm_cpu $end
$scope module rf $end
$var reg 32 > \rf[29] [31:0] $end
$upscope $end
$upscope $end
$upscope $end
$upscope $end
$scope module sm_testbench $end
$scope module sm_top $end
$scope module sm_cpu $end
$scope module rf $end
$var reg 32 ? \rf[30] [31:0] $end
$upscope $end
$upscope $end
$upscope $end
$upscope $end
$scope module sm_testbench $end
$scope module sm_top $end
$scope module sm_cpu $end
$scope module rf $end
$var reg 32 @ \rf[31] [31:0] $end
$upscope $end
$upscope $end
$upscope $end
$upscope $end
$scope module sm_testbench $end
$var wire 1 A cpuClk $end
$var reg 1 B clk $end
$var reg 1 C rst_n $end
$var integer 32 D cycle [31:0] $end
$scope begin genblk1[0] $end
$upscope $end
$scope begin genblk1[1] $end
$upscope $end
$scope begin genblk1[2] $end
$upscope $end
$scope begin genblk1[3] $end
$upscope $end
$scope begin genblk1[4] $end
$upscope $end
$scope begin genblk1[5] $end
$upscope $end
$scope begin genblk1[6] $end
$upscope $end
$scope begin genblk1[7] $end
$upscope $end
$scope begin genblk1[8] $end
$upscope $end
$scope begin genblk1[9] $end
$upscope $end
$scope begin genblk1[10] $end
$upscope $end
$scope begin genblk1[11] $end
$upscope $end
$scope begin genblk1[12] $end
$upscope $end
$scope begin genblk1[13] $end
$upscope $end
$scope begin genblk1[14] $end
$upscope $end
$scope begin genblk1[15] $end
$upscope $end
$scope begin genblk1[16] $end
$upscope $end
$scope begin genblk1[17] $end
$upscope $end
$scope begin genblk1[18] $end
$upscope $end
$scope begin genblk1[19] $end
$upscope $end
$scope begin genblk1[20] $end
$upscope $end
$scope begin genblk1[21] $end
$upscope $end
$scope begin genblk1[22] $end
$upscope $end
$scope begin genblk1[23] $end
$upscope $end
$scope begin genblk1[24] $end
$upscope $end
$scope begin genblk1[25] $end
$upscope $end
$scope begin genblk1[26] $end
$upscope $end
$scope begin genblk1[27] $end
$upscope $end
$scope begin genblk1[28] $end
$upscope $end
$scope begin genblk1[29] $end
$upscope $end
$scope begin genblk1[30] $end
$upscope $end
$scope begin genblk1[31] $end
$upscope $end
$scope module sm_top $end
$var wire 4 E clkDivide [3:0] $end
$var wire 1 F clkEnable $end
$var wire 1 B clkIn $end
$var wire 5 G memAddr [4:0] $end
$var wire 5 H regAddr [4:0] $end
$var wire 1 C rst_n $end
$var wire 32 I regData [31:0] $end
$var wire 32 J memDataOut [31:0] $end
$var wire 32 K imData [31:0] $end
$var wire 32 L imAddr [31:0] $end
$var wire 1 M enable $end
$var wire 4 N divide [3:0] $end
$var wire 1 A clk $end
$var wire 5 O addr [4:0] $end
$scope module f0 $end
$var wire 1 B clk $end
$var wire 4 P d [3:0] $end
$var reg 4 Q data [3:0] $end
$var reg 4 R q [3:0] $end
$upscope $end
$scope module f1 $end
$var wire 1 B clk $end
$var wire 1 F d $end
$var reg 1 S data $end
$var reg 1 M q $end
$upscope $end
$scope module f2 $end
$var wire 1 B clk $end
$var wire 5 T d [4:0] $end
$var reg 5 U data [4:0] $end
$var reg 5 V q [4:0] $end
$upscope $end
$scope module reset_rom $end
$var wire 32 W rd [31:0] $end
$var wire 32 X a [31:0] $end
$upscope $end
$scope module sm_clk_divider $end
$var wire 1 B clkIn $end
$var wire 1 A clkOut $end
$var wire 4 Y divide [3:0] $end
$var wire 1 M enable $end
$var wire 1 C rst_n $end
$var wire 32 Z cntrNext [31:0] $end
$var wire 32 [ cntr [31:0] $end
$scope module r_cntr $end
$var wire 1 B clk $end
$var wire 32 \ d [31:0] $end
$var wire 1 C rst $end
$var wire 1 M we $end
$var reg 32 ] q [31:0] $end
$upscope $end
$upscope $end
$scope module sm_cpu $end
$var wire 1 A clk $end
$var wire 32 ^ imData [31:0] $end
$var wire 32 _ instr [31:0] $end
$var wire 5 ` memAddr [4:0] $end
$var wire 5 a regAddr [4:0] $end
$var wire 1 C rst_n $end
$var wire 32 b wd3 [31:0] $end
$var wire 32 c srcB [31:0] $end
$var wire 5 d rs2 [4:0] $end
$var wire 5 e rs1 [4:0] $end
$var wire 1 f regWrite $end
$var wire 32 g regData [31:0] $end
$var wire 32 h rd2 [31:0] $end
$var wire 32 i rd1 [31:0] $end
$var wire 32 j rd0 [31:0] $end
$var wire 5 k rd [4:0] $end
$var wire 1 l pcSrc $end
$var wire 32 m pcPlus4 [31:0] $end
$var wire 32 n pcNext [31:0] $end
$var wire 32 o pcBranch [31:0] $end
$var wire 32 p pc [31:0] $end
$var wire 1 q memWrite $end
$var wire 2 r memToReg [1:0] $end
$var wire 1 s memRead $end
$var wire 32 t memDataOut [31:0] $end
$var wire 32 u memData [31:0] $end
$var wire 32 v memAddress [31:0] $end
$var wire 32 w immU [31:0] $end
$var wire 32 x immS [31:0] $end
$var wire 32 y immI [31:0] $end
$var wire 32 z immB [31:0] $end
$var wire 32 { imAddr [31:0] $end
$var wire 7 | cmdOp [6:0] $end
$var wire 7 } cmdF7 [6:0] $end
$var wire 3 ~ cmdF3 [2:0] $end
$var wire 1 !" aluZero $end
$var wire 1 "" aluSrc $end
$var wire 32 #" aluResult [31:0] $end
$var wire 3 $" aluControl [2:0] $end
$scope module alu $end
$var wire 32 %" srcB [31:0] $end
$var wire 1 !" zero $end
$var wire 32 &" srcA [31:0] $end
$var wire 3 '" oper [2:0] $end
$var reg 32 (" result [31:0] $end
$upscope $end
$scope module data_mem $end
$var wire 5 )" addr_a [4:0] $end
$var wire 5 *" addr_b [4:0] $end
$var wire 1 A clk $end
$var wire 32 +" q_a [31:0] $end
$var wire 32 ," q_b [31:0] $end
$var wire 1 q we_a $end
$var wire 32 -" data_a [31:0] $end
$upscope $end
$scope module id $end
$var wire 32 ." instr [31:0] $end
$var wire 5 /" rs2 [4:0] $end
$var wire 5 0" rs1 [4:0] $end
$var wire 5 1" rd [4:0] $end
$var wire 7 2" cmdOp [6:0] $end
$var wire 7 3" cmdF7 [6:0] $end
$var wire 3 4" cmdF3 [2:0] $end
$var reg 32 5" immB [31:0] $end
$var reg 32 6" immI [31:0] $end
$var reg 32 7" immS [31:0] $end
$var reg 32 8" immU [31:0] $end
$upscope $end
$scope module r_pc $end
$var wire 1 A clk $end
$var wire 32 9" d [31:0] $end
$var wire 1 C rst $end
$var reg 32 :" q [31:0] $end
$upscope $end
$scope module rf $end
$var wire 5 ;" a0 [4:0] $end
$var wire 5 <" a1 [4:0] $end
$var wire 5 =" a2 [4:0] $end
$var wire 5 >" a3 [4:0] $end
$var wire 1 A clk $end
$var wire 32 ?" wd3 [31:0] $end
$var wire 1 f we3 $end
$var wire 32 @" rd2 [31:0] $end
$var wire 32 A" rd1 [31:0] $end
$var wire 32 B" rd0 [31:0] $end
$upscope $end
$scope module sm_control $end
$var wire 1 !" aluZero $end
$var wire 3 C" cmdF3 [2:0] $end
$var wire 7 D" cmdF7 [6:0] $end
$var wire 7 E" cmdOp [6:0] $end
$var wire 1 l pcSrc $end
$var reg 3 F" aluControl [2:0] $end
$var reg 1 "" aluSrc $end
$var reg 1 G" branch $end
$var reg 1 H" condZero $end
$var reg 1 s memRead $end
$var reg 2 I" memToReg [1:0] $end
$var reg 1 q memWrite $end
$var reg 1 f regWrite $end
$upscope $end
$upscope $end
$upscope $end
$scope task disasmInstr $end
$var reg 3 J" cmdF3 [2:0] $end
$var reg 7 K" cmdF7 [6:0] $end
$var reg 7 L" cmdOp [6:0] $end
$var reg 32 M" immB [31:0] $end
$var reg 32 N" immI [31:0] $end
$var reg 32 O" immS [31:0] $end
$var reg 32 P" immU [31:0] $end
$var reg 5 Q" rd [4:0] $end
$var reg 5 R" rs1 [4:0] $end
$var reg 5 S" rs2 [4:0] $end
$upscope $end
$upscope $end
$enddefinitions $end
#0
$dumpvars
bx S"
bx R"
bx Q"
bx P"
bx O"
bx N"
bx M"
bx L"
bx K"
bx J"
b0 I"
0H"
0G"
b0 F"
b10011 E"
b0 D"
b0 C"
bx B"
b0 A"
b0 @"
b0 ?"
b1011 >"
b0 ="
b0 <"
bx ;"
b0 :"
b100 9"
b0 8"
b1011 7"
b0 6"
b100000001010 5"
b0 4"
b0 3"
b10011 2"
b1011 1"
b0 0"
b0 /"
b10110010011 ."
b0 -"
bx ,"
b10001010001111110001110001110010 +"
bz *"
b0 )"
b0 ("
b0 '"
b0 &"
b0 %"
b0 $"
b0 #"
1""
1!"
b0 ~
b0 }
b10011 |
b0 {
b100000001010 z
b0 y
b1011 x
b0 w
b0 v
b10001010001111110001110001110010 u
bx t
0s
b0 r
0q
b0 p
b100000001010 o
b100 n
b100 m
0l
b1011 k
bx j
b0 i
b0 h
bx g
1f
b0 e
b0 d
b0 c
b0 b
bx a
bz `
b10110010011 _
b10110010011 ^
b0 ]
b1 \
b0 [
b1 Z
bx Y
b0 X
b10110010011 W
bx V
bx U
b0 T
xS
bx R
bx Q
b0 P
bx O
bx N
xM
b0 L
b10110010011 K
bx J
bx I
b0 H
bz G
1F
b0 E
b0 D
0C
0B
0A
bx @
bx ?
bx >
bx =
bx <
bx ;
bx :
bx 9
bx 8
bx 7
bx 6
bx 5
bx 4
bx 3
bx 2
bx 1
bx 0
bx /
bx .
bx -
bx ,
bx +
bx *
bx )
bx (
bx '
bx &
bx %
bx $
bx #
bx "
bx !
$end
#100
b0 Q
1S
b0 U
b0 ,
b1 D
b1011 O"
b0 P"
b100000001010 M"
b0 N"
b0 K"
b0 S"
b0 R"
b0 J"
b1011 Q"
b10011 L"
1A
1B
#200
0A
0B
#300
b0 I
b0 g
b0 j
b0 B"
b0 O
b0 V
b0 a
b0 ;"
1M
b0 N
b0 R
b0 Y
b0 ,
b10 D
1A
1B
#400
0A
0B
#500
b0 ,
b11 D
1A
1B
#600
0A
0B
#700
b0 ,
b100 D
1C
1A
1B
#800
0A
0B
#900
b100000000100 z
b100000000100 5"
b101 x
b101 7"
b101 k
b101 1"
b101 >"
b100 I
b100 g
b1010010011 _
b1010010011 ."
b1010010011 K
b1010010011 W
b1010010011 ^
b1 L
b1 X
b1 {
b1000 n
b1000 9"
b0 ,
b1000 m
b100000001000 o
b100 p
b100 :"
b10 Z
b10 \
b1 [
b1 ]
b101 D
1A
1B
#1000
0A
0B
#1100
b110 x
b110 7"
b1011000000000000000 w
b1011000000000000000 8"
b110 z
b110 5"
b110 k
b110 1"
b110 >"
b1011 e
b1011 0"
b1011 <"
b1000 I
b1000 g
b1011000001100010011 _
b1011000001100010011 ."
b1011000001100010011 K
b1011000001100010011 W
b1011000001100010011 ^
b10 L
b10 X
b10 {
b1100 n
b1100 9"
b0 &
b1100 m
b1110 o
b1000 p
b1000 :"
b11 Z
b11 \
b10 [
b10 ]
b110 D
b101 O"
b100000000100 M"
b101 Q"
1A
1B
#1200
0A
0B
#1300
b1 b
b1 ?"
0!"
b1 #"
b1 ("
b1 v
b1 c
b1 %"
bx h
bx -"
bx @"
b1 y
b1 6"
b1110 z
b1110 5"
b100000000000000000000 w
b100000000000000000000 8"
b1110 x
b1110 7"
b1110 k
b1110 1"
b1110 >"
b0 e
b0 0"
b0 <"
b1 d
b1 /"
b1 ="
b1100 I
b1100 g
b100000000011100010011 _
b100000000011100010011 ."
b100000000011100010011 K
b100000000011100010011 W
b100000000011100010011 ^
b11 L
b11 X
b11 {
b10000 n
b10000 9"
b0 '
b10000 m
b11010 o
b1100 p
b1100 :"
b100 Z
b100 \
b11 [
b11 ]
b111 D
b110 O"
b1011000000000000000 P"
b110 M"
b1011 R"
b110 Q"
1A
1B
#1400
0A
0B
#1500
1!"
b0 #"
b0 ("
b10001010001111110001110001110010 b
b10001010001111110001110001110010 ?"
b0 v
b0 c
b0 %"
b1 r
b1 I"
1s
1""
1f
b0 h
b0 -"
b0 @"
b1000 x
b1000 7"
b110010000000000000 w
b110010000000000000 8"
b1000 z
b1000 5"
b0 y
b0 6"
b11 |
b11 2"
b11 E"
b1000 k
b1000 1"
b1000 >"
b10 ~
b10 4"
b10 C"
b110 e
b110 0"
b110 <"
b0 d
b0 /"
b0 ="
b10000 I
b10000 g
b110010010000000011 _
b110010010000000011 ."
b110010010000000011 K
b110010010000000011 W
b110010010000000011 ^
b100 L
b100 X
b100 {
b10100 n
b10100 9"
b1 /
b10100 m
b11000 o
b10000 p
b10000 :"
b101 Z
b101 \
b100 [
b100 ]
b1000 D
b1110 O"
b100000000000000000000 P"
b1110 M"
b1 N"
b1 S"
b0 R"
b1110 Q"
1A
1B
#1600
0A
0B
#1700
b10001010001111110001110001110011 b
b10001010001111110001110001110011 ?"
0!"
b10001010001111110001110001110011 #"
b10001010001111110001110001110011 ("
b1 c
b1 %"
b1 $"
b1 '"
b1 F"
0s
b0 r
b0 I"
0""
1f
b10001010001111110001110010000000 v
b10001010001111110001110001110010 i
b10001010001111110001110001110010 &"
b10001010001111110001110001110010 A"
b1 h
b1 -"
b1 @"
b1110 y
b1110 6"
b100000001000 z
b100000001000 5"
b111001000110000000000000 w
b111001000110000000000000 8"
b1001 x
b1001 7"
b110011 |
b110011 2"
b110011 E"
b1001 k
b1001 1"
b1001 >"
b110 ~
b110 4"
b110 C"
b1000 e
b1000 0"
b1000 <"
b1110 d
b1110 /"
b1110 ="
b10100 I
b10100 g
b111001000110010010110011 _
b111001000110010010110011 ."
b111001000110010010110011 K
b111001000110010010110011 W
b111001000110010010110011 ^
b101 L
b101 X
b101 {
b11000 n
b11000 9"
b10001010001111110001110001110010 )
b11000 m
b100000011100 o
b10100 p
b10100 :"
b110 Z
b110 \
b101 [
b101 ]
b1001 D
b1000 O"
b110010000000000000 P"
b1000 M"
b0 N"
b0 S"
b110 R"
b10 J"
b1000 Q"
b11 L"
1A
1B
#1800
0A
0B
#1900
b1 b
b1 ?"
b101001111001001101100000010111 u
b101001111001001101100000010111 +"
b11110 )"
b10001010001111110001110001110010 c
b10001010001111110001110001110010 %"
b1 #"
b1 ("
b10001010001111110010000001111011 v
b10001010001111110001110001110011 i
b10001010001111110001110001110011 &"
b10001010001111110001110001110011 A"
b10001010001111110001110001110010 h
b10001010001111110001110001110010 -"
b10001010001111110001110001110010 @"
b100 $"
b100 '"
b100 F"
1f
b10000001100 x
b10000001100 7"
b1000000100001001000000000000000 w
b1000000100001001000000000000000 8"
b10000001100 z
b10000001100 5"
b10000001000 y
b10000001000 6"
b1100 k
b1100 1"
b1100 >"
b0 ~
b0 4"
b0 C"
b1001 e
b1001 0"
b1001 <"
b1000 d
b1000 /"
b1000 ="
b100000 }
b100000 3"
b100000 D"
b11000 I
b11000 g
b1000000100001001000011000110011 _
b1000000100001001000011000110011 ."
b1000000100001001000011000110011 K
b1000000100001001000011000110011 W
b1000000100001001000011000110011 ^
b110 L
b110 X
b110 {
b11100 n
b11100 9"
b10001010001111110001110001110011 *
b11100 m
b10000100100 o
b11000 p
b11000 :"
b111 Z
b111 \
b110 [
b110 ]
b1010 D
b1001 O"
b111001000110000000000000 P"
b100000001000 M"
b1110 N"
b1110 S"
b1000 R"
b110 J"
b1001 Q"
b110011 L"
1A
1B
#2000
0A
0B
#2100
b1 b
b1 ?"
b10001010001111110001110001110010 u
b10001010001111110001110001110010 +"
b0 )"
b0 c
b0 %"
1l
b1 #"
b1 ("
b1 v
b1 i
b1 &"
b1 A"
b0 h
b0 -"
b0 @"
1G"
b100 $"
b100 '"
b100 F"
0f
b0 y
b0 6"
b10000 z
b10000 5"
b1100001000000000000 w
b1100001000000000000 8"
b10000 x
b10000 7"
b1100011 |
b1100011 2"
b1100011 E"
b10000 k
b10000 1"
b10000 >"
b1 ~
b1 4"
b1 C"
b1100 e
b1100 0"
b1100 <"
b0 d
b0 /"
b0 ="
b0 }
b0 3"
b0 D"
b11100 I
b11100 g
b1100001100001100011 _
b1100001100001100011 ."
b1100001100001100011 K
b1100001100001100011 W
b1100001100001100011 ^
b111 L
b111 X
b111 {
b101100 n
b101100 9"
b1 -
b100000 m
b101100 o
b11100 p
b11100 :"
b1000 Z
b1000 \
b111 [
b111 ]
b1011 D
b10000001100 O"
b1000000100001001000000000000000 P"
b10000001100 M"
b10000001000 N"
b100000 K"
b1000 S"
b1001 R"
b0 J"
b1100 Q"
1A
1B
#2200
0A
0B
#2300
b100 b
b100 ?"
b10100110110011011011010100101 u
b10100110110011011011010100101 +"
b1 )"
0l
b100 #"
b100 ("
b100 c
b100 %"
1""
1f
b0 $"
b0 '"
b0 F"
0G"
b100 v
b0 i
b0 &"
b0 A"
bx h
bx -"
bx @"
b110 x
b110 7"
b10000110000000000000000 w
b10000110000000000000000 8"
b110 z
b110 5"
b100 y
b100 6"
b10011 |
b10011 2"
b10011 E"
b110 k
b110 1"
b110 >"
b0 ~
b0 4"
b0 C"
b110 e
b110 0"
b110 <"
b100 d
b100 /"
b100 ="
b101100 I
b101100 g
b10000110000001100010011 _
b10000110000001100010011 ."
b10000110000001100010011 K
b10000110000001100010011 W
b10000110000001100010011 ^
b1011 L
b1011 X
b1011 {
b110000 n
b110000 9"
b110000 m
b110010 o
b101100 p
b101100 :"
b1001 Z
b1001 \
b1000 [
b1000 ]
b1100 D
b10000 O"
b1100001000000000000 P"
b10000 M"
b0 N"
b0 K"
b0 S"
b1100 R"
b1 J"
b10000 Q"
b1100011 L"
1A
1B
#2400
0A
0B
#2500
b1 b
b1 ?"
b1 c
b1 %"
b10001010001111110001110001110010 u
b10001010001111110001110001110010 +"
b0 )"
b1 #"
b1 ("
b1 y
b1 6"
b100000000100 z
b100000000100 5"
b100101000000000000000 w
b100101000000000000000 8"
b101 x
b101 7"
b101 k
b101 1"
b101 >"
b101 e
b101 0"
b101 <"
b1 d
b1 /"
b1 ="
b1 v
b0 i
b0 &"
b0 A"
b110000 I
b110000 g
b100101000001010010011 _
b100101000001010010011 ."
b100101000001010010011 K
b100101000001010010011 W
b100101000001010010011 ^
b1100 L
b1100 X
b1100 {
b110100 n
b110100 9"
b100 '
b110100 m
b100000110100 o
b110000 p
b110000 :"
b1010 Z
b1010 \
b1001 [
b1001 ]
b1101 D
b110 O"
b10000110000000000000000 P"
b110 M"
b100 N"
b100 S"
b110 R"
b0 J"
b110 Q"
b10011 L"
1A
1B
#2600
0A
0B
#2700
b100011101110001001101001100111 u
b100011101110001001101001100111 +"
b1000 )"
b100000 b
b100000 ?"
b100000 c
b100000 %"
b0 h
b0 -"
b0 @"
1""
1f
b100000 #"
b100000 ("
b101101 x
b101101 7"
b10000000000000000000000000 w
b10000000000000000000000000 8"
b100000101100 z
b100000101100 5"
b100000 y
b100000 6"
b1101 k
b1101 1"
b1101 >"
b0 e
b0 0"
b0 <"
b0 d
b0 /"
b0 ="
b1 }
b1 3"
b1 D"
b100000 v
b0 i
b0 &"
b0 A"
b110100 I
b110100 g
b10000000000000011010010011 _
b10000000000000011010010011 ."
b10000000000000011010010011 K
b10000000000000011010010011 W
b10000000000000011010010011 ^
b1101 L
b1101 X
b1101 {
b111000 n
b111000 9"
b1 &
b111000 m
b100001100000 o
b110100 p
b110100 :"
b1011 Z
b1011 \
b1010 [
b1010 ]
b1110 D
b101 O"
b100101000000000000000 P"
b100000000100 M"
b1 N"
b1 S"
b101 R"
b101 Q"
1A
1B
#2800
0A
0B
#2900
b1 b
b1 ?"
b111001101000000100010101101101 u
b111001101000000100010101101101 +"
b11 )"
b1 #"
b1 ("
b1110 v
b1 i
b1 &"
b1 A"
b100000 h
b100000 -"
b100000 @"
b11 $"
b11 '"
b11 F"
0""
1f
b1101 y
b1101 6"
b100000001100 z
b100000001100 5"
b110100101011000000000000 w
b110100101011000000000000 8"
b1101 x
b1101 7"
b110011 |
b110011 2"
b110011 E"
b11 ~
b11 4"
b11 C"
b101 e
b101 0"
b101 <"
b1101 d
b1101 /"
b1101 ="
b0 }
b0 3"
b0 D"
b111000 I
b111000 g
b110100101011011010110011 _
b110100101011011010110011 ."
b110100101011011010110011 K
b110100101011011010110011 W
b110100101011011010110011 ^
b1110 L
b1110 X
b1110 {
b111100 n
b111100 9"
b100000 .
b111100 m
b100001000100 o
b111000 p
b111000 :"
b1100 Z
b1100 \
b1011 [
b1011 ]
b1111 D
b101101 O"
b10000000000000000000000000 P"
b100000101100 M"
b100000 N"
b1 K"
b0 S"
b0 R"
b1101 Q"
1A
1B
#3000
0A
0B
#3100
b1 b
b1 ?"
b1010010110000111001011100001010 u
b1010010110000111001011100001010 +"
b10000 )"
1l
0!"
b1 #"
b1 ("
b11111111111111111111111111000001 v
1G"
b100 $"
b100 '"
b100 F"
0f
b0 c
b0 %"
b11111111111111111111111111010101 x
b11111111111111111111111111010101 7"
b11111100000001101001000000000000 w
b11111100000001101001000000000000 8"
b11111111111111111111111111010100 z
b11111111111111111111111111010100 5"
b11111111111111111111111111000000 y
b11111111111111111111111111000000 6"
b1100011 |
b1100011 2"
b1100011 E"
b10101 k
b10101 1"
b10101 >"
b1 ~
b1 4"
b1 C"
b1101 e
b1101 0"
b1101 <"
b0 d
b0 /"
b0 ="
b1111110 }
b1111110 3"
b1111110 D"
b0 h
b0 -"
b0 @"
b111100 I
b111100 g
b11111100000001101001101011100011 _
b11111100000001101001101011100011 ."
b11111100000001101001101011100011 K
b11111100000001101001101011100011 W
b11111100000001101001101011100011 ^
b1111 L
b1111 X
b1111 {
b10000 n
b10000 9"
b1 .
b1000000 m
b10000 o
b111100 p
b111100 :"
b1101 Z
b1101 \
b1100 [
b1100 ]
b10000 D
b1101 O"
b110100101011000000000000 P"
b100000001100 M"
b1101 N"
b0 K"
b1101 S"
b101 R"
b11 J"
b110011 L"
1A
1B
#3200
0A
0B
#3300
b10100110110011011011010100101 u
b10100110110011011011010100101 +"
b1 )"
b10100110110011011011010100101 b
b10100110110011011011010100101 ?"
b100 #"
b100 ("
0l
b100 v
b100 i
b100 &"
b100 A"
b1 r
b1 I"
1s
1""
1f
b0 $"
b0 '"
b0 F"
0G"
b0 y
b0 6"
b1000 z
b1000 5"
b110010000000000000 w
b110010000000000000 8"
b1000 x
b1000 7"
b11 |
b11 2"
b11 E"
b1000 k
b1000 1"
b1000 >"
b10 ~
b10 4"
b10 C"
b110 e
b110 0"
b110 <"
b0 }
b0 3"
b0 D"
b10000 I
b10000 g
b110010010000000011 _
b110010010000000011 ."
b110010010000000011 K
b110010010000000011 W
b110010010000000011 ^
b100 L
b100 X
b100 {
b10100 n
b10100 9"
b10100 m
b11000 o
b10000 p
b10000 :"
b1110 Z
b1110 \
b1101 [
b1101 ]
b10001 D
b11111111111111111111111111010101 O"
b11111100000001101001000000000000 P"
b11111111111111111111111111010100 M"
b11111111111111111111111111000000 N"
b1111110 K"
b0 S"
b1101 R"
b1 J"
b10101 Q"
b1100011 L"
1A
1B
#3400
0A
0B
#3500
b11100011101001011011111101110100 u
b11100011101001011011111101110100 +"
b1100 )"
b10100110110011011011010100101 #"
b10100110110011011011010100101 ("
b1 c
b1 %"
b1 $"
b1 '"
b1 F"
0s
b0 r
b0 I"
0""
1f
b10100110110011011011010110011 v
b10100110110011011011010100101 i
b10100110110011011011010100101 &"
b10100110110011011011010100101 A"
b1 h
b1 -"
b1 @"
b1001 x
b1001 7"
b111001000110000000000000 w
b111001000110000000000000 8"
b100000001000 z
b100000001000 5"
b1110 y
b1110 6"
b110011 |
b110011 2"
b110011 E"
b1001 k
b1001 1"
b1001 >"
b110 ~
b110 4"
b110 C"
b1000 e
b1000 0"
b1000 <"
b1110 d
b1110 /"
b1110 ="
b10100 I
b10100 g
b111001000110010010110011 _
b111001000110010010110011 ."
b111001000110010010110011 K
b111001000110010010110011 W
b111001000110010010110011 ^
b101 L
b101 X
b101 {
b11000 n
b11000 9"
b10100110110011011011010100101 )
b11000 m
b100000011100 o
b10100 p
b10100 :"
b1111 Z
b1111 \
b1110 [
b1110 ]
b10010 D
b1000 O"
b110010000000000000 P"
b1000 M"
b0 N"
b0 K"
b110 R"
b10 J"
b1000 Q"
b11 L"
1A
1B
#3600
0A
0B
